
ERP___>
Ip: 94.73.147.6
database adı : u8026792_dbD90
username: u8026792_userD90
password: QXkv29B6BNdi70C


İSG==>
Sunucu İp : 94.73.146.3
Db Adı : u8026792_db2F6
Db User: u8026792_user2F6
Parola : XUex73O6GIit76U
 

VPN bilgileri:
vpn.hektas.com.tr
farmakod1
Hektas2018
FncAdmin





