farmakodhelper.dll

log atma, ip adresi alma, login olan kullanıcıyı alma gibi helperclass'ı dll olarak yazıp
referans olarak bütün projelerimize eklicez.

ka=2 sifre=2 bölge müdürü
1-1 direktör

/*

            var TransactionID = db.AX_SERVICE_POST_TRANSACTION.Where(i => i.SEVKIYAT_NO == "MC0001358").FirstOrDefault().ID; //id=14 olan
      
            var on=db.SEVK_RECETE.FirstOrDefault(i => i.DOCUMENT__NO == "MC0001358").ORDERNUMBER;

            var gtinNo = db.SEVK_RECETE_SERV.FirstOrDefault(i => i.ORDER_NUMBER == on).GTIN_NO;

            var sevkList = db.SEVK_RECETE_SERV.Where(i => i.ORDER_NUMBER == on).ToList();
            List<gtinList> GL = sevkList.Select(i => new gtinList
            {
                gtin = i.GTIN_NO
            }).ToList();

            var mtr = db.GTIN.FirstOrDefault(i => i.GTIN_NO == gtinNo).MTR_KODU;

            var okutulanMiktar = db.SEVK_RECETE_SERV.Where(i => i.ORDER_NUMBER == on && i.GTIN_NO == gtinNo).ToList().Count;


            List<CountOfRead> CR = GL.Select(a => new CountOfRead
            {
                Count = db.SEVK_RECETE_SERV.Where(i => i.ORDER_NUMBER == on && i.GTIN_NO == a.gtin).ToList().Count,
                Mtr=db.GTIN.FirstOrDefault(i => i.GTIN_NO == a.gtin).MTR_KODU
                
            }).ToList();
            

            var ListTrans = db.AX_SERVICE_POST_TRANSACTION_ROWS.Where(i=> i.TRANSACTION_ID == TransactionID).ToList(); //id=14 olan satirlar
            List<AXAP_Transaction> AT = ListTrans.Select(i => new AXAP_Transaction
            {
                ItemID=i.URUN_NO,
                Qty=i.MIKTAR.Value  //istenilen miktarlar
            }).ToList();

            var batchNo = db.SEVK_RECETE_SERV.FirstOrDefault(i => i.ORDER_NUMBER == on && i.GTIN_NO == gtinNo).BATCH_NO;

            string karsilastirma = "";
            List<Ax_Count> ac = new List<Ax_Count>();

            foreach (var item in AT)
            {
                Ax_Count acc = new Ax_Count();
                if (item.Qty == okutulanMiktar)
                {
                    acc.Message = $"{item.ItemID} mtr kodlu ürün {item.Qty} adet okutulmuştur.";
                    acc.Count = item.Qty;

                }
                else
                {
                    acc.Message= $"{item.ItemID} mtr kodlu üründen {item.Qty} adet istenmiş fakat tamamı henüz okutulmuştur.";
                }
            }


*/